SuperMemo Report
   Activity: Collecting retention data
   Collection: c:\supermemo\systems\math
   Date: Wednesday, August 25, 2021, 2:08:58 PM
   SuperMemo 18 (Build 18.05, Oct 29, 2020)

Retention data errors can be ignored

Process completed at 2:08:58 PM in 00:00:00 sec (Wednesday, August 25, 2021)

NO ERRORS (Collecting retention data)

____________________________________________________________
