SuperMemo Report
   Activity: Importing files and folders
   Collection: c:\users\memory\supermemo\systems\incremental
   Date: Monday, November 14, 2022, 11:20:14 AM
   SuperMemo 18 (Build 18.05, Oct 29, 2020)


Process completed at 11:20:32 AM in 00:00:17 sec (Monday, November 14, 2022)

NO ERRORS (Importing files and folders)

____________________________________________________________
