SuperMemo Report
   Activity: Mercy rescheduling
   Collection: c:\users\memory\supermemo\systems\incremental
   Date: Monday, November 14, 2022, 9:53:50 AM
   SuperMemo 18 (Build 18.05, Oct 29, 2020)

Rescheduling elements
Scheduling repetitions on 11/14/2022
Scheduling repetitions on 11/15/2022
Scheduling repetitions on 11/16/2022
Scheduling repetitions on 11/17/2022
Scheduling repetitions on 11/18/2022
Scheduling repetitions on 11/19/2022
Scheduling repetitions on 11/20/2022
Scheduling repetitions on 11/21/2022
Scheduling repetitions on 11/22/2022
Scheduling repetitions on 11/23/2022
Scheduling repetitions on 11/24/2022
Scheduling repetitions on 11/25/2022
Scheduling repetitions on 11/26/2022
Scheduling repetitions on 11/27/2022
Scheduling repetitions on 11/28/2022
Scheduling repetitions on 11/29/2022
Scheduling repetitions on 11/30/2022
Scheduling repetitions on 12/1/2022
Scheduling repetitions on 12/2/2022
Scheduling repetitions on 12/3/2022
Scheduling repetitions on 12/4/2022
Scheduling repetitions on 12/5/2022
Scheduling repetitions on 12/6/2022
Scheduling repetitions on 12/7/2022
Scheduling repetitions on 12/8/2022
Scheduling repetitions on 12/9/2022
Scheduling repetitions on 12/10/2022
Scheduling repetitions on 12/11/2022
Scheduling repetitions on 12/12/2022
Scheduling repetitions on 12/13/2022
Scheduling repetitions on 12/14/2022
Scheduling repetitions on 12/15/2022

Process completed at 9:53:51 AM in 00:00:00 sec (Monday, November 14, 2022)

NO ERRORS (Mercy rescheduling)

____________________________________________________________
