SuperMemo Report
   Activity: Operation: spread priority within a range in elements
   Collection: c:\users\memory\supermemo\systems\knowledge
   Date: Tuesday, August 30, 2022, 7:15:17 AM
   SuperMemo 18 (Build 18.05, Oct 29, 2020)


Process completed at 7:15:18 AM in 00:00:00 sec (Tuesday, August 30, 2022)

NO ERRORS (Operation: spread priority within a range in elements)

____________________________________________________________
