SuperMemo Report
   Activity: Generating repetition history subsets
   Collection: c:\supermemo\systems\math
   Date: Wednesday, August 25, 2021, 2:08:58 PM
   SuperMemo 18 (Build 18.05, Oct 29, 2020)


Process completed at 2:08:58 PM in 00:00:00 sec (Wednesday, August 25, 2021)

NO ERRORS (Generating repetition history subsets)

____________________________________________________________
